allurecash.net|cashstats|itisagood|2010-01-01|
amateurdough.com|ladytop|Handbook232323|2010-01-01|
amateurnetcash.com|cashstats|itisagood|2010-01-01|
angelawhite.com|ladytop|Handbook232323|2010-01-01|
animatedbucks.com|ladytop|Handbook232323|2010-01-01|
bamvisionscash.com|Adrenal1ne|Handbook232323|2010-01-01|
biggestisbestcash.com|ladytop|Handbook232323|2010-01-01|
bittiebucks.com|ladytop|WFPWKQiAGepx|2010-01-01|
boundcash.com|ladytop|Handbook232323|2010-01-01|
brutalbucks.com|cashstats|itisagood|2010-01-01|
bumblecash.com|ladytop|Handbook232323|2010-01-01|
cash4sins.com|ladytop|Handbook232323|2010-01-01|
cashstatistics.com|cashstats|eLnr2mNNdeCj|2010-01-01|
coldhardcash.com|ladytop|Handbook232323|2010-01-01|
craziescash.com|cashstats|itisagood|2010-01-01|
deepdollars.com|ladytop|Handbook232323|2010-01-01|
dirtyboypays.com|ladytop|Handbook232323|2010-01-01|
dtibucks.com|ladytop|Handbook232323|2010-01-01|
enginecash.com|cashstats|itisagood|2010-01-01|
enjoybucks.com|cashstats|itisagood|2010-01-01|
extrememoviecash.com|cashstats|HA9WDfy68NEC|2010-01-01|
fetishdollars.net|cashstats|itisagood|2010-01-01|
fetishwealth.com|ladytop|6WUjVuhXvWXm|2010-01-01|
getscorecash.com|ladytop|handbook2323|2010-01-01|
ghostcash.com|ladytop|4MWfjxQfwh7K|2010-01-01|
glamourdollars.com|cashstats|itisagood|2010-01-01|
groobybucks.com|ladytop|Handbook232323|2010-01-01|
hazecash.com|cashstats|itisagood|2010-01-01|
hentaiboss.com|cashstats|yckdLVWyEdBt|2010-01-01|
homegrowncash.com|ladytop|Handbook232323|2010-01-01|
indiebucks.com|cashstats|itisagood|2010-01-01|
intensecash.com|cashstats|itisagood|2010-01-01|
iocash.com|cashstats|itisagood|2010-01-01|
islanddollars.com|cashstats|itisagood|2010-01-01|
jamesdeencash.com|ladytop|handbook2323|2010-01-01|
jerkpay.com|ladytop|Handbook232323|2010-01-01|
javbucks.com|cashstats|itisagood|2010-01-01|
joshstonecash.com|ladytop|Handbook232323|2010-01-01|
kellycash.com|cashstats|itisagood|2010-01-01|
kickasspays.com|ladytop|Handbook232323|2010-01-01|
kongbucks.com|cashstats|itisagood|2010-01-01|
longbucks.com|ladytop|absolute2323|2010-01-01|
lotzadollars.com|cashstats|itisagood|2010-01-01|
makemoneywith3d.com|cashstats|itisagood|2010-01-01|
meanworldbucks.com|cashstats|itisagood|2010-01-01|
mediumpimpin.com|cashstats|itisagood|2010-01-01|
manicamoney.com|cashstats|pNHMfinb7tQT|2010-01-01|
matrix-cash.com|ladytop|Handbook232323|2010-01-01|
methodcash.com|cashstats|Taac3Qhx96ea|2010-01-01|
moviewebmasters.com|cashstats|itisagood|2010-01-01|
mvgcash.com|ladytop|Handbook232323|2010-01-01|
nichepartners.com|ladytop|Handbook232323|2010-01-01|
nsfwcash.com|ladytop|Handbook232323|2010-01-01|
panchodog.com|cashstats|itisagood|2010-01-01|
paperstreetcash.com|cashstats|itisagood|2010-01-01|
peakbucks.com|ladytop|Handbook232323|2010-01-01|
penthouse.com|ladytop|Handbook232323|2010-01-01|
pimproll.com|pimp38224|handbook2323|2010-01-01|
playboywebmasters.com|konstantink|w81GZS52Mr9K|2010-01-01|
pornomental.com|ladytop|Handbook232323|2010-01-01|
pornpurveyors.com|ladytop|Handbook232323|2010-01-01|
premiumcash.com|cashstats|itisagood|2010-01-01|
prettyincash.com|cashstats|itisagood|2010-01-01|
privatecash.com|cashstats|itisagood|2010-01-01|
profitsdeluxe.com|cashstats|itisagood|2010-01-01|
puffycash.com|cashstats|itisagood|2010-01-01|
radicalcash.com|cashstats|itisagood|2010-01-01|
pussymoney.natsfornetworks.com|ladytop|Handbook232323|2010-01-01|
radriches.com|ladytop|Handbook232323|2010-01-01|
rawfuckingcash.com|ladytop|Handbook232323|2010-01-01|
real4cash.com|ladytop|Handbook232323|2010-01-01|
realitycash.com|konstantink|NqAz8ygs7YvL|2010-01-01|
realjamcash.com|ladytop|Handbook232323|2010-01-01|
realsexcash.com|ladytop|Handbook232323|2010-01-01|
scoreslivecash.com|ladytop|Handbook232323|2010-01-01|
|ladytop|Handbook232323|2010-01-01|
|ladytop|Handbook232323|2010-01-01|
|ladytop|Handbook232323|2010-01-01|
|ladytop|Handbook232323|2010-01-01|
|ladytop|Handbook232323|2010-01-01|
|ladytop|Handbook232323|2010-01-01|
|ladytop|Handbook232323|2010-01-01|
|ladytop|Handbook232323|2010-01-01|
|ladytop|Handbook232323|2010-01-01|
|ladytop|Handbook232323|2010-01-01|
|ladytop|Handbook232323|2010-01-01|
|ladytop|Handbook232323|2010-01-01|
|ladytop|Handbook232323|2010-01-01|
|ladytop|Handbook232323|2010-01-01|
|ladytop|Handbook232323|2010-01-01|
|ladytop|Handbook232323|2010-01-01|
|ladytop|Handbook232323|2010-01-01|
|ladytop|Handbook232323|2010-01-01|
|ladytop|Handbook232323|2010-01-01|
|ladytop|Handbook232323|2010-01-01|
|ladytop|Handbook232323|2010-01-01|
|ladytop|Handbook232323|2010-01-01|
|ladytop|Handbook232323|2010-01-01|
|ladytop|Handbook232323|2010-01-01|
|ladytop|Handbook232323|2010-01-01|
|ladytop|Handbook232323|2010-01-01|
|ladytop|Handbook232323|2010-01-01|
|ladytop|Handbook232323|2010-01-01|
|ladytop|Handbook232323|2010-01-01|
|ladytop|Handbook232323|2010-01-01|
|ladytop|Handbook232323|2010-01-01|
|ladytop|Handbook232323|2010-01-01|
|ladytop|Handbook232323|2010-01-01|